{
  "KingdomsGuild": "384566953920036865",
  "contributorsRole": "",
  "developerRole": "267024160054706178",
  "donorsRole": "267025666552102913",
  "modsRole": "267025581630160897",
  "patronsRole": "280768000720764929",
  "supportRole": "267025348586110977",
  "testersRole": "294056313401376779",
  "translatorsRole": "329538847480479745"
}
